{
    "/js/app.js": "/js/app.js?id=2fbd3a57977ebf328a4a",
    "/js/auth.js": "/js/auth.js?id=d966e6a82542dbcb3855",
    "/js/customer.js": "/js/customer.js?id=3bbc4c2842305fe6fba5",
    "/js/orders-list.js": "/js/orders-list.js?id=01971d6cf83c816914a4",
    "/js/products-list.js": "/js/products-list.js?id=f8c00fa12471cf60d9b4",
    "/js/profile_change_password.js": "/js/profile_change_password.js?id=d80fad73fa0085c4a871",
    "/js/profile_overview.js": "/js/profile_overview.js?id=b6f634e05ca93a1faed3",
    "/js/profile_user.js": "/js/profile_user.js?id=3eacd27e3ace6ddf58ae",
    "/js/settings-departments.js": "/js/settings-departments.js?id=1f0a2f7785d43ce0823e",
    "/js/settings-zones.js": "/js/settings-zones.js?id=ca88510aab59c4779634",
    "/js/user-management-assign-permissions.js": "/js/user-management-assign-permissions.js?id=38e4fa3d4b49343c3211",
    "/js/user-management-permissions.js": "/js/user-management-permissions.js?id=85f7aba5182f14551cc0",
    "/js/user-management-roles.js": "/js/user-management-roles.js?id=bed89474a5dbde5946c8",
    "/js/users.js": "/js/users.js?id=5ae0fb385d9a76c5a5bc",
    "/js/users-add-update.js": "/js/users-add-update.js?id=bfc311b5f69de492ff83",
    "/js/users-view.js": "/js/users-view.js?id=f62559adc6c3b5a6211d",
    "/css/auth.css": "/css/auth.css?id=70567a21003ee3d162f8",
    "/css/app.css": "/css/app.css?id=ea0596c1fef3118dad9b"
}
